{
  "id": "activity",
  "type": "object",
  "properties": {
    "name": {
      "type": "string",
      "minLength": 2
    },
    "instructor": {
      "type": "string",
      "minLength": 1
    },
    "timesheet": {
      "type": "array",
      "items": {
        "$ref": "timesheet"
      }
    },
    "values": {
      "type": "object",
      "properties": {
        "single": {
          "type": "number",
          "minimum": 0
        },
        "monthly": {
          "type": "number",
          "minimum": 0
        }
      },
      "required": [
        "single",
        "monthly"
      ]
    }
  },
  "required": [
    "name",
    "instructor"
  ]
}
